<deployment-project plugin="plugin.coder" plugin-version="R2016a">
  <configuration build-checksum="4212216272" file="C:\Users\jsere\Documents\StochAN\Single_Compartment\stochAN_single.prj" location="C:\Users\jsere\Documents\StochAN\Single_Compartment" name="stochAN_single" target="target.unifiedcoder" target-name="MATLAB Coder">
    <profile key="profile.mex">
      <param.BuiltInstrumentedMex>false</param.BuiltInstrumentedMex>
      <param.RanInstrumentedMex>false</param.RanInstrumentedMex>
      <param.WorkingFolder>option.WorkingFolder.Project</param.WorkingFolder>
      <param.SpecifiedWorkingFolder />
      <param.BuildFolder>option.BuildFolder.Project</param.BuildFolder>
      <param.SpecifiedBuildFolder />
      <param.SearchPaths />
      <param.ResponsivenessChecks>true</param.ResponsivenessChecks>
      <param.ExtrinsicCalls>true</param.ExtrinsicCalls>
      <param.IntegrityChecks>true</param.IntegrityChecks>
      <param.SaturateOnIntegerOverflow>true</param.SaturateOnIntegerOverflow>
      <param.GlobalDataSyncMethod>option.GlobalDataSyncMethod.SyncAlways</param.GlobalDataSyncMethod>
      <param.EnableVariableSizing>true</param.EnableVariableSizing>
      <param.DynamicMemoryAllocation>option.DynamicMemoryAllocation.Threshold</param.DynamicMemoryAllocation>
      <param.DynamicMemoryAllocationThreshold>65536</param.DynamicMemoryAllocationThreshold>
      <param.RowMajor>option.RowMajor.ColumnMajor</param.RowMajor>
      <param.HighlightPotentialRowMajorIssues>true</param.HighlightPotentialRowMajorIssues>
      <param.PreserveArrayDimensions>false</param.PreserveArrayDimensions>
      <param.StackUsageMax>200000</param.StackUsageMax>
      <param.FilePartitionMethod>option.FilePartitionMethod.MapMFileToCFile</param.FilePartitionMethod>
      <param.GenerateComments>true</param.GenerateComments>
      <param.MATLABSourceComments>false</param.MATLABSourceComments>
      <param.ReservedNameArray />
      <param.EnableDebugging>false</param.EnableDebugging>
      <param.GenerateReport>true</param.GenerateReport>
      <param.LaunchReport>false</param.LaunchReport>
      <param.ReportPotentialDifferences>false</param.ReportPotentialDifferences>
      <param.DefaultTestFile />
      <param.MergeInstrumentationResults>false</param.MergeInstrumentationResults>
      <param.VerificationMode>option.VerificationMode.None</param.VerificationMode>
      <param.VerificationStatus>option.VerificationStatus.Passed</param.VerificationStatus>
      <param.EnableMexProfiling>false</param.EnableMexProfiling>
      <var.BuiltWithMexProfiling>false</var.BuiltWithMexProfiling>
      <param.CustomSourceCode />
      <param.CustomHeaderCode />
      <param.CustomInitializer />
      <param.CustomTerminator />
      <param.CustomInclude />
      <param.CustomSource />
      <param.CustomLibrary />
      <param.PostCodeGenCommand />
      <param.mex.GenCodeOnly>false</param.mex.GenCodeOnly>
      <param.ConstantFoldingTimeout>40000</param.ConstantFoldingTimeout>
      <param.CompileTimeRecursionLimit>50</param.CompileTimeRecursionLimit>
      <param.EnableRuntimeRecursion>true</param.EnableRuntimeRecursion>
      <param.PreserveVariableNames>option.PreserveVariableNames.None</param.PreserveVariableNames>
      <param.TargetLang>option.TargetLang.C</param.TargetLang>
      <param.EchoExpressions>true</param.EchoExpressions>
      <param.InlineThreshold>10</param.InlineThreshold>
      <param.InlineThresholdMax>200</param.InlineThresholdMax>
      <param.InlineStackLimit>4000</param.InlineStackLimit>
      <param.EnableMemcpy>true</param.EnableMemcpy>
      <param.MemcpyThreshold>64</param.MemcpyThreshold>
      <param.EnableOpenMP>true</param.EnableOpenMP>
      <param.InitFltsAndDblsToZero>true</param.InitFltsAndDblsToZero>
      <param.ConstantInputs>option.ConstantInputs.CheckValues</param.ConstantInputs>
      <param.EnableCRICodeCoverage>true</param.EnableCRICodeCoverage>
      <param.EnableJIT>false</param.EnableJIT>
      <param.EnableJITSilentBailOut>false</param.EnableJITSilentBailOut>
      <param.CheckForIssuesJIT>true</param.CheckForIssuesJIT>
      <unset>
        <param.BuiltInstrumentedMex />
        <param.RanInstrumentedMex />
        <param.WorkingFolder />
        <param.SpecifiedWorkingFolder />
        <param.BuildFolder />
        <param.SpecifiedBuildFolder />
        <param.SearchPaths />
        <param.ResponsivenessChecks />
        <param.ExtrinsicCalls />
        <param.IntegrityChecks />
        <param.SaturateOnIntegerOverflow />
        <param.GlobalDataSyncMethod />
        <param.EnableVariableSizing />
        <param.DynamicMemoryAllocation />
        <param.DynamicMemoryAllocationThreshold />
        <param.RowMajor />
        <param.HighlightPotentialRowMajorIssues />
        <param.PreserveArrayDimensions />
        <param.StackUsageMax />
        <param.FilePartitionMethod />
        <param.GenerateComments />
        <param.MATLABSourceComments />
        <param.ReservedNameArray />
        <param.EnableDebugging />
        <param.GenerateReport />
        <param.LaunchReport />
        <param.ReportPotentialDifferences />
        <param.DefaultTestFile />
        <param.MergeInstrumentationResults />
        <param.VerificationMode />
        <param.EnableMexProfiling />
        <var.BuiltWithMexProfiling />
        <param.CustomSourceCode />
        <param.CustomHeaderCode />
        <param.CustomInitializer />
        <param.CustomTerminator />
        <param.CustomInclude />
        <param.CustomSource />
        <param.CustomLibrary />
        <param.PostCodeGenCommand />
        <param.mex.GenCodeOnly />
        <param.ConstantFoldingTimeout />
        <param.CompileTimeRecursionLimit />
        <param.EnableRuntimeRecursion />
        <param.PreserveVariableNames />
        <param.TargetLang />
        <param.EchoExpressions />
        <param.InlineThreshold />
        <param.InlineThresholdMax />
        <param.InlineStackLimit />
        <param.EnableMemcpy />
        <param.MemcpyThreshold />
        <param.EnableOpenMP />
        <param.InitFltsAndDblsToZero />
        <param.ConstantInputs />
        <param.EnableCRICodeCoverage />
        <param.EnableJIT />
        <param.EnableJITSilentBailOut />
        <param.CheckForIssuesJIT />
      </unset>
    </profile>
    <profile key="profile.c">
      <param.grt.GenCodeOnly>false</param.grt.GenCodeOnly>
      <param.WorkingFolder>option.WorkingFolder.Project</param.WorkingFolder>
      <param.SpecifiedWorkingFolder />
      <param.BuildFolder>option.BuildFolder.Project</param.BuildFolder>
      <param.SpecifiedBuildFolder />
      <param.SearchPaths />
      <param.SaturateOnIntegerOverflow>true</param.SaturateOnIntegerOverflow>
      <param.PurelyIntegerCode />
      <param.SupportNonFinite />
      <param.EnableVariableSizing>true</param.EnableVariableSizing>
      <param.DynamicMemoryAllocation>option.DynamicMemoryAllocation.Threshold</param.DynamicMemoryAllocation>
      <param.DynamicMemoryAllocationThreshold>65536</param.DynamicMemoryAllocationThreshold>
      <param.RowMajor>option.RowMajor.ColumnMajor</param.RowMajor>
      <param.HighlightPotentialRowMajorIssues>true</param.HighlightPotentialRowMajorIssues>
      <param.PreserveArrayDimensions>false</param.PreserveArrayDimensions>
      <param.StackUsageMax>200000</param.StackUsageMax>
      <param.MultiInstanceCode />
      <param.FilePartitionMethod>option.FilePartitionMethod.MapMFileToCFile</param.FilePartitionMethod>
      <param.GenerateComments>true</param.GenerateComments>
      <param.CommentStyle />
      <param.MATLABSourceComments>false</param.MATLABSourceComments>
      <param.MATLABFcnDesc />
      <param.DataTypeReplacement />
      <param.ConvertIfToSwitch />
      <param.PreserveExternInFcnDecls />
      <param.EnableSignedLeftShifts />
      <param.EnableSignedRightShifts />
      <param.ParenthesesLevel />
      <param.MaxIdLength />
      <param.CustomSymbolStrGlobalVar>$M$N</param.CustomSymbolStrGlobalVar>
      <param.CustomSymbolStrType>$M$N</param.CustomSymbolStrType>
      <param.CustomSymbolStrField>$M$N</param.CustomSymbolStrField>
      <param.CustomSymbolStrFcn>$M$N</param.CustomSymbolStrFcn>
      <param.CustomSymbolStrTmpVar>$M$N</param.CustomSymbolStrTmpVar>
      <param.CustomSymbolStrMacro>$M$N</param.CustomSymbolStrMacro>
      <param.CustomSymbolStrEMXArray>emxArray_$M$N</param.CustomSymbolStrEMXArray>
      <param.CustomSymbolStrEMXArrayFcn />
      <param.ReservedNameArray />
      <param.RuntimeChecks>false</param.RuntimeChecks>
      <param.Verbose />
      <param.GenerateReport>true</param.GenerateReport>
      <param.GenerateCodeMetricsReport />
      <param.GenerateCodeReplacementReport />
      <param.HighlightPotentialDataTypeIssues />
      <param.LaunchReport>false</param.LaunchReport>
      <param.ReportPotentialDifferences>false</param.ReportPotentialDifferences>
      <param.SILDebugging />
      <param.SILPILCheckConstantInputs />
      <param.SILPILSyncGlobalData />
      <param.CodeExecutionProfiling />
      <param.DefaultTestFile />
      <param.MergeInstrumentationResults>false</param.MergeInstrumentationResults>
      <param.RanPilSilVerification>false</param.RanPilSilVerification>
      <param.VerificationMode>option.VerificationMode.None</param.VerificationMode>
      <param.VerificationStatus />
      <param.CustomSourceCode />
      <param.CustomHeaderCode />
      <param.CustomInitializer />
      <param.CustomTerminator />
      <param.CustomInclude />
      <param.CustomSource />
      <param.CustomLibrary />
      <param.PostCodeGenCommand />
      <param.TargetLangStandard />
      <param.CodeReplacementLibrary />
      <param.DeprecatedCRLFlag />
      <param.SameHardware>true</param.SameHardware>
      <param.Toolchain>Automatically locate an installed toolchain</param.Toolchain>
      <param.BuildConfiguration />
      <param.CustomToolchainOptions />
      <var.ToolchainSettingsVisible />
      <param.target.Data />
      <param.target.ActiveType>option.target.TargetType.MatlabHost</param.target.ActiveType>
      <param.target.ActiveTarget />
      <param.HardwareVendor.Production>Generic</param.HardwareVendor.Production>
      <param.HardwareType.Production>MATLAB Host Computer</param.HardwareType.Production>
      <param.HWDeviceType.Production />
      <var.instance.enabled.Production />
      <param.HardwareSizeChar.Production>8</param.HardwareSizeChar.Production>
      <param.HardwareSizeShort.Production>16</param.HardwareSizeShort.Production>
      <param.HardwareSizeInt.Production>32</param.HardwareSizeInt.Production>
      <param.HardwareSizeLong.Production>32</param.HardwareSizeLong.Production>
      <param.HardwareSizeLongLong.Production>64</param.HardwareSizeLongLong.Production>
      <param.HardwareSizeFloat.Production>32</param.HardwareSizeFloat.Production>
      <param.HardwareSizeDouble.Production>64</param.HardwareSizeDouble.Production>
      <param.HardwareSizeWord.Production>64</param.HardwareSizeWord.Production>
      <param.HardwareSizePointer.Production>64</param.HardwareSizePointer.Production>
      <param.HardwareSizeSizeT.Production>64</param.HardwareSizeSizeT.Production>
      <param.HardwareSizePtrDiffT.Production>64</param.HardwareSizePtrDiffT.Production>
      <param.HardwareEndianness.Production>option.HardwareEndianness.Little</param.HardwareEndianness.Production>
      <param.HardwareArithmeticRightShift.Production>true</param.HardwareArithmeticRightShift.Production>
      <param.HardwareLongLongMode.Production>true</param.HardwareLongLongMode.Production>
      <param.HardwareAtomicIntegerSize.Production>option.HardwareAtomicIntegerSize.Char</param.HardwareAtomicIntegerSize.Production>
      <param.HardwareAtomicFloatSize.Production>option.HardwareAtomicFloatSize.None</param.HardwareAtomicFloatSize.Production>
      <param.HardwareDivisionRounding.Production>option.HardwareDivisionRounding.Zero</param.HardwareDivisionRounding.Production>
      <param.HardwareVendor.Target>Generic</param.HardwareVendor.Target>
      <param.HardwareType.Target>MATLAB Host Computer</param.HardwareType.Target>
      <param.HWDeviceType.Target />
      <var.instance.enabled.Target>false</var.instance.enabled.Target>
      <param.HardwareSizeChar.Target>8</param.HardwareSizeChar.Target>
      <param.HardwareSizeShort.Target>16</param.HardwareSizeShort.Target>
      <param.HardwareSizeInt.Target>32</param.HardwareSizeInt.Target>
      <param.HardwareSizeLong.Target>32</param.HardwareSizeLong.Target>
      <param.HardwareSizeLongLong.Target>64</param.HardwareSizeLongLong.Target>
      <param.HardwareSizeFloat.Target>32</param.HardwareSizeFloat.Target>
      <param.HardwareSizeDouble.Target>64</param.HardwareSizeDouble.Target>
      <param.HardwareSizeWord.Target>64</param.HardwareSizeWord.Target>
      <param.HardwareSizePointer.Target>64</param.HardwareSizePointer.Target>
      <param.HardwareSizeSizeT.Target>64</param.HardwareSizeSizeT.Target>
      <param.HardwareSizePtrDiffT.Target>64</param.HardwareSizePtrDiffT.Target>
      <param.HardwareEndianness.Target>option.HardwareEndianness.Little</param.HardwareEndianness.Target>
      <param.HardwareArithmeticRightShift.Target>true</param.HardwareArithmeticRightShift.Target>
      <param.HardwareLongLongMode.Target>true</param.HardwareLongLongMode.Target>
      <param.HardwareAtomicIntegerSize.Target>option.HardwareAtomicIntegerSize.Char</param.HardwareAtomicIntegerSize.Target>
      <param.HardwareAtomicFloatSize.Target>option.HardwareAtomicFloatSize.None</param.HardwareAtomicFloatSize.Target>
      <param.HardwareDivisionRounding.Target>option.HardwareDivisionRounding.Zero</param.HardwareDivisionRounding.Target>
      <param.CastingMode />
      <param.IndentStyle />
      <param.IndentSize />
      <param.ConstantFoldingTimeout>40000</param.ConstantFoldingTimeout>
      <param.CompileTimeRecursionLimit>50</param.CompileTimeRecursionLimit>
      <param.EnableRuntimeRecursion>true</param.EnableRuntimeRecursion>
      <param.IncludeTerminateFcn />
      <param.GenerateExampleMain>option.GenerateExampleMain.GenerateCodeOnly</param.GenerateExampleMain>
      <param.PreserveVariableNames>option.PreserveVariableNames.None</param.PreserveVariableNames>
      <param.TargetLang>option.TargetLang.C</param.TargetLang>
      <param.CCompilerOptimization />
      <param.CCompilerCustomOptimizations />
      <param.GenerateMakefile />
      <param.BuildToolEnable>false</param.BuildToolEnable>
      <param.MakeCommand />
      <param.TemplateMakefile />
      <param.BuildToolConfiguration />
      <param.InlineThreshold>10</param.InlineThreshold>
      <param.InlineThresholdMax>200</param.InlineThresholdMax>
      <param.InlineStackLimit>4000</param.InlineStackLimit>
      <param.EnableStrengthReduction />
      <param.EnableMemcpy>true</param.EnableMemcpy>
      <param.MemcpyThreshold>64</param.MemcpyThreshold>
      <param.EnableOpenMP>true</param.EnableOpenMP>
      <param.InitFltsAndDblsToZero>true</param.InitFltsAndDblsToZero>
      <param.PassStructByReference />
      <param.CustomLAPACKCallback />
      <param.CustomFFTCallback />
      <param.GenerateDefaultInSwitch />
      <param.EnableTraceability />
      <param.UseECoderFeatures />
      <param.psCustomPrjState />
      <param.psCustomProjectFile />
      <param.psCheckConfValue />
      <param.psUniqueOutPutState />
      <param.psOpenResultsState />
      <param.psProductModeValue />
      <param.psQuickConfValue />
      <param.psOutputFolder />
      <unset>
        <param.grt.GenCodeOnly />
        <param.WorkingFolder />
        <param.SpecifiedWorkingFolder />
        <param.BuildFolder />
        <param.SpecifiedBuildFolder />
        <param.SearchPaths />
        <param.SaturateOnIntegerOverflow />
        <param.PurelyIntegerCode />
        <param.SupportNonFinite />
        <param.EnableVariableSizing />
        <param.DynamicMemoryAllocation />
        <param.DynamicMemoryAllocationThreshold />
        <param.RowMajor />
        <param.HighlightPotentialRowMajorIssues />
        <param.PreserveArrayDimensions />
        <param.StackUsageMax />
        <param.MultiInstanceCode />
        <param.FilePartitionMethod />
        <param.GenerateComments />
        <param.CommentStyle />
        <param.MATLABSourceComments />
        <param.MATLABFcnDesc />
        <param.DataTypeReplacement />
        <param.ConvertIfToSwitch />
        <param.PreserveExternInFcnDecls />
        <param.EnableSignedLeftShifts />
        <param.EnableSignedRightShifts />
        <param.ParenthesesLevel />
        <param.MaxIdLength />
        <param.CustomSymbolStrGlobalVar />
        <param.CustomSymbolStrType />
        <param.CustomSymbolStrField />
        <param.CustomSymbolStrFcn />
        <param.CustomSymbolStrTmpVar />
        <param.CustomSymbolStrMacro />
        <param.CustomSymbolStrEMXArray />
        <param.CustomSymbolStrEMXArrayFcn />
        <param.ReservedNameArray />
        <param.RuntimeChecks />
        <param.Verbose />
        <param.GenerateReport />
        <param.GenerateCodeMetricsReport />
        <param.GenerateCodeReplacementReport />
        <param.HighlightPotentialDataTypeIssues />
        <param.LaunchReport />
        <param.ReportPotentialDifferences />
        <param.SILDebugging />
        <param.SILPILCheckConstantInputs />
        <param.SILPILSyncGlobalData />
        <param.CodeExecutionProfiling />
        <param.DefaultTestFile />
        <param.MergeInstrumentationResults />
        <param.RanPilSilVerification />
        <param.VerificationMode />
        <param.VerificationStatus />
        <param.CustomSourceCode />
        <param.CustomHeaderCode />
        <param.CustomInitializer />
        <param.CustomTerminator />
        <param.CustomInclude />
        <param.CustomSource />
        <param.CustomLibrary />
        <param.PostCodeGenCommand />
        <param.TargetLangStandard />
        <param.CodeReplacementLibrary />
        <param.DeprecatedCRLFlag />
        <param.SameHardware />
        <param.Toolchain />
        <param.BuildConfiguration />
        <param.CustomToolchainOptions />
        <var.ToolchainSettingsVisible />
        <param.target.Data />
        <param.target.ActiveType />
        <param.target.ActiveTarget />
        <param.HardwareVendor.Production />
        <param.HardwareType.Production />
        <param.HWDeviceType.Production />
        <var.instance.enabled.Production />
        <param.HardwareSizeChar.Production />
        <param.HardwareSizeShort.Production />
        <param.HardwareSizeInt.Production />
        <param.HardwareSizeLong.Production />
        <param.HardwareSizeLongLong.Production />
        <param.HardwareSizeFloat.Production />
        <param.HardwareSizeDouble.Production />
        <param.HardwareEndianness.Production />
        <param.HardwareAtomicIntegerSize.Production />
        <param.HardwareAtomicFloatSize.Production />
        <param.HardwareVendor.Target />
        <param.HardwareType.Target />
        <param.HWDeviceType.Target />
        <var.instance.enabled.Target />
        <param.HardwareSizeChar.Target />
        <param.HardwareSizeShort.Target />
        <param.HardwareSizeInt.Target />
        <param.HardwareSizeLong.Target />
        <param.HardwareSizeLongLong.Target />
        <param.HardwareSizeFloat.Target />
        <param.HardwareSizeDouble.Target />
        <param.HardwareEndianness.Target />
        <param.HardwareAtomicIntegerSize.Target />
        <param.HardwareAtomicFloatSize.Target />
        <param.CastingMode />
        <param.IndentStyle />
        <param.IndentSize />
        <param.ConstantFoldingTimeout />
        <param.CompileTimeRecursionLimit />
        <param.EnableRuntimeRecursion />
        <param.IncludeTerminateFcn />
        <param.GenerateExampleMain />
        <param.PreserveVariableNames />
        <param.TargetLang />
        <param.CCompilerOptimization />
        <param.CCompilerCustomOptimizations />
        <param.GenerateMakefile />
        <param.BuildToolEnable />
        <param.MakeCommand />
        <param.TemplateMakefile />
        <param.BuildToolConfiguration />
        <param.InlineThreshold />
        <param.InlineThresholdMax />
        <param.InlineStackLimit />
        <param.EnableStrengthReduction />
        <param.EnableMemcpy />
        <param.MemcpyThreshold />
        <param.EnableOpenMP />
        <param.InitFltsAndDblsToZero />
        <param.PassStructByReference />
        <param.CustomLAPACKCallback />
        <param.CustomFFTCallback />
        <param.GenerateDefaultInSwitch />
        <param.EnableTraceability />
        <param.UseECoderFeatures />
        <param.psCustomPrjState />
        <param.psCustomProjectFile />
        <param.psCheckConfValue />
        <param.psUniqueOutPutState />
        <param.psOpenResultsState />
        <param.psProductModeValue />
        <param.psQuickConfValue />
        <param.psOutputFolder />
      </unset>
    </profile>
    <profile key="profile.hdl">
      <param.hdl.Workflow />
      <param.hdl.TargetLanguage />
      <param.hdl.TargetPlatform />
      <param.hdl.SynthesisTool />
      <param.hdl.InputFrequency />
      <param.hdl.TargetFrequency />
      <param.hdl.IPCoreName />
      <param.hdl.IPCoreVersion />
      <param.hdl.AdditionalIPFiles />
      <param.hdl.ExecutionMode />
      <param.hdl.SynthesisToolChipFamily />
      <param.hdl.SynthesisToolDeviceName />
      <param.hdl.SynthesisToolPackageName />
      <param.hdl.SynthesisToolSpeedValue />
      <param.hdl.TargetInterface />
      <param.hdl.CheckConformance />
      <param.hdl.LaunchConformanceReport />
      <param.hdl.GenerateEDAScripts />
      <param.hdl.GenerateHDLCode />
      <param.hdl.AdditionalSynthesisProjectFiles />
      <param.hdl.CriticalPathSource />
      <param.hdl.EmbeddedSystemTool />
      <param.hdl.EmbeddedSystemProjectFolder />
      <param.hdl.BitstreamBuildMode />
      <param.hdl.ReferenceDesign />
      <param.hdl.ReferenceDesignPath />
      <param.hdl.LegacyDefaultTestFile />
      <param.WorkingFolder>option.WorkingFolder.Project</param.WorkingFolder>
      <param.SpecifiedWorkingFolder />
      <param.BuildFolder>option.BuildFolder.Project</param.BuildFolder>
      <param.SpecifiedBuildFolder />
      <param.SearchPaths />
      <param.hdl.MapPersistentVarsToRAM />
      <param.hdl.RAMThreshold />
      <param.hdl.MapPipelineDelaysToRAM />
      <param.hdl.RAMVariableNames />
      <param.hdl.RegisterInputs />
      <param.hdl.RegisterOutputs />
      <param.hdl.DistributedPipelining />
      <param.hdl.DistributedPipeliningPriority />
      <param.hdl.PreserveDesignDelays />
      <param.hdl.InputPipeline />
      <param.hdl.OutputPipeline />
      <param.hdl.PipelineVariables />
      <param.hdl.ResourceSharing />
      <param.hdl.ConstantMultiplierOptimization />
      <param.hdl.LoopOptimization />
      <param.GenerateComments>true</param.GenerateComments>
      <param.MATLABSourceComments>false</param.MATLABSourceComments>
      <param.hdl.VHDLFileExt />
      <param.hdl.VerilogFileExt />
      <param.hdl.DateComment />
      <param.hdl.UserComment />
      <param.hdl.ModulePrefix />
      <param.hdl.PackagePostfix />
      <param.hdl.EntityConflictPostfix />
      <param.hdl.ReservedWordPostfix />
      <param.hdl.ClockProcessPostfix />
      <param.hdl.ComplexRealPostfix />
      <param.hdl.ComplexImagPostfix />
      <param.hdl.PipelinePostfix />
      <param.hdl.EnablePrefix />
      <param.hdl.InlineConfigurations />
      <param.hdl.UseRisingEdge />
      <param.hdl.UseMatrixTypesInHDL />
      <param.hdl.HDLCompileFilePostfix />
      <param.hdl.HDLCompileInit />
      <param.hdl.HDLCompileVHDLCmd />
      <param.hdl.HDLCompileVerilogCmd />
      <param.hdl.HDLCompileTerm />
      <param.hdl.HDLSimFilePostfix />
      <param.hdl.HDLSimInit />
      <param.hdl.HDLSimCmd />
      <param.hdl.HDLSimViewWaveCmd />
      <param.hdl.HDLSimTerm />
      <param.hdl.HDLSynthTool />
      <var.hasSynthesisToolScript />
      <var.toolSpecificEDAScript />
      <param.hdl.HDLSynthFilePostfix />
      <param.hdl.HDLSynthInit />
      <param.hdl.HDLSynthCmd />
      <param.hdl.HDLSynthTerm />
      <param.hdl.HDLLintTool />
      <var.LintToolScript />
      <var.hasHDLLintTool />
      <param.hdl.HDLLintInit />
      <param.hdl.HDLLintCmd />
      <param.hdl.HDLLintTerm />
      <param.hdl.ResetType />
      <param.hdl.ResetAssertedLevel />
      <param.hdl.ResetInputPort />
      <param.hdl.ClockInputPort />
      <param.hdl.ClockEdge />
      <param.hdl.ClockEnableInputPort />
      <param.hdl.Oversampling />
      <param.hdl.EnableRate />
      <param.hdl.InputType />
      <param.hdl.OutputType />
      <param.hdl.ClockEnableOutputPort />
      <param.hdl.ScalarizePorts />
      <param.hdl.HDLCodingStandard />
      <var.HDLCodingStandard_FilterPassingRules_enable />
      <var.HDLCodingStandard_DetectDuplicateNamesCheck_enable />
      <var.HDLCodingStandard_HDLKeywords_enable />
      <var.HDLCodingStandard_ModuleInstanceEntityNameLength_enable />
      <var.HDLCodingStandard_ModuleInstanceEntityNameLength_min />
      <var.HDLCodingStandard_ModuleInstanceEntityNameLength_max />
      <var.HDLCodingStandard_SignalPortParamNameLength_enable />
      <var.HDLCodingStandard_SignalPortParamNameLength_min />
      <var.HDLCodingStandard_SignalPortParamNameLength_max />
      <var.HDLCodingStandard_MinimizeVariableUsage_enable />
      <var.HDLCodingStandard_InitialStatements_enable />
      <var.HDLCodingStandard_IfElseChain_enable />
      <var.HDLCodingStandard_IfElseChain_length />
      <var.HDLCodingStandard_IfElseNesting_enable />
      <var.HDLCodingStandard_IfElseNesting_depth />
      <var.HDLCodingStandard_MultiplierBitWidth_enable />
      <var.HDLCodingStandard_MultiplierBitWidth_width />
      <var.HDLCodingStandard_NonIntegerTypes_enable />
      <var.HDLCodingStandard_LineLength_enable />
      <var.HDLCodingStandard_LineLength_length />
      <param.hdl.GenerateCosimTestBench />
      <param.hdl.CosimLogOutputs />
      <param.hdl.CosimTool />
      <param.hdl.CosimRunMode />
      <param.hdl.SimulateCosimTestBench />
      <param.hdl.CosimClockHighTime />
      <param.hdl.CosimClockLowTime />
      <param.hdl.CosimHoldTime />
      <param.hdl.CosimClockEnableDelay />
      <param.hdl.CosimResetLength />
      <param.hdl.GenerateFILTestBench />
      <param.hdl.FILLogOutputs />
      <param.hdl.FILBoardName />
      <param.hdl.FILConnection />
      <param.hdl.FILBoardIPAddress />
      <param.hdl.FILBoardMACAddress />
      <param.hdl.FILAdditionalFiles />
      <param.hdl.SimulateFILTestBench />
      <var.hasTestBench />
      <param.hdl.GenerateHDLTestBench />
      <param.hdl.SimulateGeneratedCode />
      <param.hdl.SimulationTool />
      <param.hdl.TestBenchPostfix />
      <param.hdl.ForceClock />
      <param.hdl.ClockHighTime />
      <param.hdl.ClockLowTime />
      <param.hdl.HoldTime />
      <param.hdl.ForceClockEnable />
      <param.hdl.TestBenchClockEnableDelay />
      <param.hdl.ForceReset />
      <param.hdl.ResetLength />
      <param.hdl.HoldInputDataBetweenSamples />
      <param.hdl.InputDataInterval />
      <param.hdl.InitializeTestBenchInputs />
      <param.hdl.MultifileTestBench />
      <param.hdl.TestBenchDataPostfix />
      <param.hdl.TestReferencePostfix />
      <param.hdl.UseFileIOInTestBench />
      <param.hdl.IgnoreDataChecking />
      <param.hdl.SimulationIterationLimit />
      <param.hdl.UseFiAccelForTestBench />
      <param.hdl.hdlVariables />
      <param.hdl.hdlComputedVariables />
      <param.hdl.InitializeBlockRAM />
      <param.hdl.RAMArchitecture />
      <param.hdl.PartitionFunctions />
      <param.hdl.InstantiateFunctions />
      <param.hdl.GenerateMLFcnBlock />
      <param.hdl.GenerateXSGBlock />
      <unset>
        <param.hdl.Workflow />
        <param.hdl.TargetLanguage />
        <param.hdl.TargetPlatform />
        <param.hdl.SynthesisTool />
        <param.hdl.InputFrequency />
        <param.hdl.TargetFrequency />
        <param.hdl.IPCoreName />
        <param.hdl.IPCoreVersion />
        <param.hdl.AdditionalIPFiles />
        <param.hdl.ExecutionMode />
        <param.hdl.SynthesisToolChipFamily />
        <param.hdl.SynthesisToolDeviceName />
        <param.hdl.SynthesisToolPackageName />
        <param.hdl.SynthesisToolSpeedValue />
        <param.hdl.TargetInterface />
        <param.hdl.CheckConformance />
        <param.hdl.LaunchConformanceReport />
        <param.hdl.GenerateEDAScripts />
        <param.hdl.GenerateHDLCode />
        <param.hdl.AdditionalSynthesisProjectFiles />
        <param.hdl.CriticalPathSource />
        <param.hdl.EmbeddedSystemTool />
        <param.hdl.EmbeddedSystemProjectFolder />
        <param.hdl.BitstreamBuildMode />
        <param.hdl.ReferenceDesign />
        <param.hdl.ReferenceDesignPath />
        <param.hdl.LegacyDefaultTestFile />
        <param.WorkingFolder />
        <param.SpecifiedWorkingFolder />
        <param.BuildFolder />
        <param.SpecifiedBuildFolder />
        <param.SearchPaths />
        <param.hdl.MapPersistentVarsToRAM />
        <param.hdl.RAMThreshold />
        <param.hdl.MapPipelineDelaysToRAM />
        <param.hdl.RAMVariableNames />
        <param.hdl.RegisterInputs />
        <param.hdl.RegisterOutputs />
        <param.hdl.DistributedPipelining />
        <param.hdl.DistributedPipeliningPriority />
        <param.hdl.PreserveDesignDelays />
        <param.hdl.InputPipeline />
        <param.hdl.OutputPipeline />
        <param.hdl.PipelineVariables />
        <param.hdl.ResourceSharing />
        <param.hdl.ConstantMultiplierOptimization />
        <param.hdl.LoopOptimization />
        <param.GenerateComments />
        <param.MATLABSourceComments />
        <param.hdl.VHDLFileExt />
        <param.hdl.VerilogFileExt />
        <param.hdl.DateComment />
        <param.hdl.UserComment />
        <param.hdl.ModulePrefix />
        <param.hdl.PackagePostfix />
        <param.hdl.EntityConflictPostfix />
        <param.hdl.ReservedWordPostfix />
        <param.hdl.ClockProcessPostfix />
        <param.hdl.ComplexRealPostfix />
        <param.hdl.ComplexImagPostfix />
        <param.hdl.PipelinePostfix />
        <param.hdl.EnablePrefix />
        <param.hdl.InlineConfigurations />
        <param.hdl.UseRisingEdge />
        <param.hdl.UseMatrixTypesInHDL />
        <param.hdl.HDLCompileFilePostfix />
        <param.hdl.HDLCompileInit />
        <param.hdl.HDLCompileVHDLCmd />
        <param.hdl.HDLCompileVerilogCmd />
        <param.hdl.HDLCompileTerm />
        <param.hdl.HDLSimFilePostfix />
        <param.hdl.HDLSimInit />
        <param.hdl.HDLSimCmd />
        <param.hdl.HDLSimViewWaveCmd />
        <param.hdl.HDLSimTerm />
        <param.hdl.HDLSynthTool />
        <var.hasSynthesisToolScript />
        <var.toolSpecificEDAScript />
        <param.hdl.HDLSynthFilePostfix />
        <param.hdl.HDLSynthInit />
        <param.hdl.HDLSynthCmd />
        <param.hdl.HDLSynthTerm />
        <param.hdl.HDLLintTool />
        <var.LintToolScript />
        <var.hasHDLLintTool />
        <param.hdl.HDLLintInit />
        <param.hdl.HDLLintCmd />
        <param.hdl.HDLLintTerm />
        <param.hdl.ResetType />
        <param.hdl.ResetAssertedLevel />
        <param.hdl.ResetInputPort />
        <param.hdl.ClockInputPort />
        <param.hdl.ClockEdge />
        <param.hdl.ClockEnableInputPort />
        <param.hdl.Oversampling />
        <param.hdl.EnableRate />
        <param.hdl.InputType />
        <param.hdl.OutputType />
        <param.hdl.ClockEnableOutputPort />
        <param.hdl.ScalarizePorts />
        <param.hdl.HDLCodingStandard />
        <var.HDLCodingStandard_FilterPassingRules_enable />
        <var.HDLCodingStandard_DetectDuplicateNamesCheck_enable />
        <var.HDLCodingStandard_HDLKeywords_enable />
        <var.HDLCodingStandard_ModuleInstanceEntityNameLength_enable />
        <var.HDLCodingStandard_ModuleInstanceEntityNameLength_min />
        <var.HDLCodingStandard_ModuleInstanceEntityNameLength_max />
        <var.HDLCodingStandard_SignalPortParamNameLength_enable />
        <var.HDLCodingStandard_SignalPortParamNameLength_min />
        <var.HDLCodingStandard_SignalPortParamNameLength_max />
        <var.HDLCodingStandard_MinimizeVariableUsage_enable />
        <var.HDLCodingStandard_InitialStatements_enable />
        <var.HDLCodingStandard_IfElseChain_enable />
        <var.HDLCodingStandard_IfElseChain_length />
        <var.HDLCodingStandard_IfElseNesting_enable />
        <var.HDLCodingStandard_IfElseNesting_depth />
        <var.HDLCodingStandard_MultiplierBitWidth_enable />
        <var.HDLCodingStandard_MultiplierBitWidth_width />
        <var.HDLCodingStandard_NonIntegerTypes_enable />
        <var.HDLCodingStandard_LineLength_enable />
        <var.HDLCodingStandard_LineLength_length />
        <param.hdl.GenerateCosimTestBench />
        <param.hdl.CosimLogOutputs />
        <param.hdl.CosimTool />
        <param.hdl.CosimRunMode />
        <param.hdl.SimulateCosimTestBench />
        <param.hdl.CosimClockHighTime />
        <param.hdl.CosimClockLowTime />
        <param.hdl.CosimHoldTime />
        <param.hdl.CosimClockEnableDelay />
        <param.hdl.CosimResetLength />
        <param.hdl.GenerateFILTestBench />
        <param.hdl.FILLogOutputs />
        <param.hdl.FILBoardName />
        <param.hdl.FILConnection />
        <param.hdl.FILBoardIPAddress />
        <param.hdl.FILBoardMACAddress />
        <param.hdl.FILAdditionalFiles />
        <param.hdl.SimulateFILTestBench />
        <var.hasTestBench />
        <param.hdl.GenerateHDLTestBench />
        <param.hdl.SimulateGeneratedCode />
        <param.hdl.SimulationTool />
        <param.hdl.TestBenchPostfix />
        <param.hdl.ForceClock />
        <param.hdl.ClockHighTime />
        <param.hdl.ClockLowTime />
        <param.hdl.HoldTime />
        <param.hdl.ForceClockEnable />
        <param.hdl.TestBenchClockEnableDelay />
        <param.hdl.ForceReset />
        <param.hdl.ResetLength />
        <param.hdl.HoldInputDataBetweenSamples />
        <param.hdl.InputDataInterval />
        <param.hdl.InitializeTestBenchInputs />
        <param.hdl.MultifileTestBench />
        <param.hdl.TestBenchDataPostfix />
        <param.hdl.TestReferencePostfix />
        <param.hdl.UseFileIOInTestBench />
        <param.hdl.IgnoreDataChecking />
        <param.hdl.SimulationIterationLimit />
        <param.hdl.UseFiAccelForTestBench />
        <param.hdl.hdlVariables />
        <param.hdl.hdlComputedVariables />
        <param.hdl.InitializeBlockRAM />
        <param.hdl.RAMArchitecture />
        <param.hdl.PartitionFunctions />
        <param.hdl.InstantiateFunctions />
        <param.hdl.GenerateMLFcnBlock />
        <param.hdl.GenerateXSGBlock />
      </unset>
    </profile>
    <param.objective>option.objective.c</param.objective>
    <param.WorkflowStep>workflowSummary</param.WorkflowStep>
    <param.TestSnippets>
      <item>StochAN_Test</item>
      <item>Stoch4_Test</item>
    </param.TestSnippets>
    <param.DefaultImportExportVariable>config</param.DefaultImportExportVariable>
    <param.ExternalFcnMajority>column</param.ExternalFcnMajority>
    <param.UseGlobals>option.UseGlobals.No</param.UseGlobals>
    <param.outputfile>${PROJECT_ROOT}\stochAN_single_mex.mexw64</param.outputfile>
    <param.version>R2012a</param.version>
    <param.HasECoderFeatures>false</param.HasECoderFeatures>
    <param.HasGpuCoder>false</param.HasGpuCoder>
    <param.mex.mainhtml />
    <param.grt.mainhtml />
    <param.CallGeneratedCodeFromTest>true</param.CallGeneratedCodeFromTest>
    <param.AutoInferDefaultFile />
    <param.AutoInferUseVariableSize>false</param.AutoInferUseVariableSize>
    <param.AutoInferUseUnboundedSize>false</param.AutoInferUseUnboundedSize>
    <param.AutoInferVariableSizeThreshold>1024</param.AutoInferVariableSizeThreshold>
    <param.AutoInferUnboundedSizeThreshold>2048</param.AutoInferUnboundedSizeThreshold>
    <param.EnableFixedPointStep>false</param.EnableFixedPointStep>
    <param.EnableScreener>true</param.EnableScreener>
    <param.AnnotationChecksum>411306672</param.AnnotationChecksum>
    <var.LegacyTarget />
    <var.MirrorOnOpen>false</var.MirrorOnOpen>
    <param.FixedPointEnabled>false</param.FixedPointEnabled>
    <var.redirectedInputTypeData />
    <var.DismissScreener>true</var.DismissScreener>
    <param.unifiedParamStorage />
    <var.gc.lastOutputRoot>codegen\mex\stochAN_single</var.gc.lastOutputRoot>
    <var.gc.lastOutputType>MEX_FILE</var.gc.lastOutputType>
    <var.gc.preBuildChecksum>1167376424</var.gc.preBuildChecksum>
    <var.cfi.lastOutputRoot>codegen\mex\stochAN4</var.cfi.lastOutputRoot>
    <var.cfi.preBuildChecksum>699264945</var.cfi.preBuildChecksum>
    <var.lastCfiTestSnippet>Stoch4_Test</var.lastCfiTestSnippet>
    <var.outdatedOnRestore>false</var.outdatedOnRestore>
    <var.lastUserSourceChecksum>&lt;?xml version="1.0" encoding="UTF-8" standalone="yes"?&gt;&lt;checksum&gt;&lt;includedFiles&gt;&lt;file&gt;C:\Users\jsere\Documents\NegmBruce_stochAN_repro\initialize_HHCW_channels2.m&lt;/file&gt;&lt;file&gt;C:\Users\jsere\Documents\NegmBruce_stochAN_repro\stochAN4.m&lt;/file&gt;&lt;file&gt;C:\Users\jsere\Documents\NegmBruce_stochAN_repro\transRates2.m&lt;/file&gt;&lt;file&gt;C:\Users\jsere\Documents\NegmBruce_stochAN_repro\update_HHCW_channels2.m&lt;/file&gt;&lt;/includedFiles&gt;&lt;value&gt;2696798650&lt;/value&gt;&lt;/checksum&gt;</var.lastUserSourceChecksum>
    <var.sourceSetState>&lt;?xml version="1.0" encoding="UTF-8" standalone="yes"?&gt;&lt;sourceModel&gt;&lt;primarySourceFiles&gt;&lt;file&gt;C:\Users\jsere\Documents\StochAN\Single_Compartment\initialize_HHCW_channels.m&lt;/file&gt;&lt;file&gt;C:\Users\jsere\Documents\StochAN\Single_Compartment\stochAN_single.m&lt;/file&gt;&lt;file&gt;C:\Users\jsere\Documents\StochAN\Single_Compartment\trans_Rates.m&lt;/file&gt;&lt;file&gt;C:\Users\jsere\Documents\StochAN\Single_Compartment\update_HHCW_channels.m&lt;/file&gt;&lt;/primarySourceFiles&gt;&lt;fixedPointSourceFiles/&gt;&lt;fixedPointSourceRegistered&gt;false&lt;/fixedPointSourceRegistered&gt;&lt;fixedPointSourceSelected&gt;false&lt;/fixedPointSourceSelected&gt;&lt;/sourceModel&gt;</var.sourceSetState>
    <param.forceMexBuild>false</param.forceMexBuild>
    <param.configImportActive>false</param.configImportActive>
    <var.isGpuCoder>false</var.isGpuCoder>
    <var.notGpuCoder>true</var.notGpuCoder>
    <var.boundToGui>true</var.boundToGui>
    <param.mex.outputfile>stochAN_single_mex</param.mex.outputfile>
    <param.grt.outputfile>stochAN_single</param.grt.outputfile>
    <param.artifact>option.target.artifact.mex</param.artifact>
    <param.outputfile>${PROJECT_ROOT}\stochAN_single_mex.mexw64</param.outputfile>
    <param.EnableAutoExtrinsicCalls>true</param.EnableAutoExtrinsicCalls>
    <param.UsePreconditions>false</param.UsePreconditions>
    <param.FeatureFlags />
    <param.FixedPointMode>option.FixedPointMode.None</param.FixedPointMode>
    <param.AutoScaleLoopIndexVariables>false</param.AutoScaleLoopIndexVariables>
    <param.ComputedFixedPointData />
    <param.UserFixedPointData />
    <param.DefaultWordLength>16</param.DefaultWordLength>
    <param.DefaultFractionLength>4</param.DefaultFractionLength>
    <param.FixedPointSafetyMargin>0</param.FixedPointSafetyMargin>
    <param.FixedPointFimath>fimath('RoundingMethod', 'Floor', 'OverflowAction', 'Wrap', 'ProductMode', 'FullPrecision', 'MaxProductWordLength', 128, 'SumMode', 'FullPrecision', 'MaxSumWordLength', 128)</param.FixedPointFimath>
    <param.FixedPointTypeSource>option.FixedPointTypeSource.SimAndDerived</param.FixedPointTypeSource>
    <param.StaticAnalysisTimeout />
    <param.StaticAnalysisGlobalRangesOnly>false</param.StaticAnalysisGlobalRangesOnly>
    <param.LogAllIOValues>false</param.LogAllIOValues>
    <param.DetectOverflows>false</param.DetectOverflows>
    <param.LogHistogram>false</param.LogHistogram>
    <param.ShowCoverage>true</param.ShowCoverage>
    <param.ExcludedFixedPointVerificationFiles />
    <param.ExcludedFixedPointSimulationFiles />
    <param.InstrumentedBuildChecksum />
    <param.FixedPointStaticAnalysisChecksum />
    <param.InstrumentedMexFile />
    <param.FixedPointValidationChecksum />
    <param.FixedPointSourceCodeChecksum />
    <param.FixedPointFunctionReplacements />
    <param.OptimizeWholeNumbers>true</param.OptimizeWholeNumbers>
    <param.ContainerTypes>false</param.ContainerTypes>
    <param.GeneratedFixedPointFileSuffix>_fixpt</param.GeneratedFixedPointFileSuffix>
    <param.PlotFunction />
    <param.SDIPlot>false</param.SDIPlot>
    <param.EnableCodeEfficiencyChecks>false</param.EnableCodeEfficiencyChecks>
    <param.DefaultFixedPointSignedness>option.DefaultFixedPointSignedness.Automatic</param.DefaultFixedPointSignedness>
    <param.FixedPointTypeProposalMode>option.FixedPointTypeProposalMode.ProposeFractionLengths</param.FixedPointTypeProposalMode>
    <param.EnableFixedPointStep>false</param.EnableFixedPointStep>
    <var.lastFixedPointAction>option.fixedPointAction.none</var.lastFixedPointAction>
    <var.lastSimContext />
    <var.lastVerifyContext />
    <param.fpDataRoot />
    <param.fpUserFileChecksum />
    <var.snapshotChecksum />
    <param.fpLastConvertChecksum />
    <var.functionBlockSid />
    <param.fptSignedness>false</param.fptSignedness>
    <var.FixedPointAnalysisMode>option.FixedPointAnalysisMode.Sim</var.FixedPointAnalysisMode>
    <param.FixedPointUseDesignRanges>false</param.FixedPointUseDesignRanges>
    <param.gpu.Enabled>false</param.gpu.Enabled>
    <param.gpu.KernelNamePrefix />
    <param.gpu.MallocMode />
    <param.gpu.MallocThreshold>200</param.gpu.MallocThreshold>
    <param.gpu.StackLimitPerThread>1024</param.gpu.StackLimitPerThread>
    <param.gpu.EnableCUBLAS>false</param.gpu.EnableCUBLAS>
    <param.gpu.EnableCUSOLVER>false</param.gpu.EnableCUSOLVER>
    <param.gpu.EnableCUFFT>false</param.gpu.EnableCUFFT>
    <param.gpu.Benchmarking>false</param.gpu.Benchmarking>
    <param.gpu.SafeBuild>false</param.gpu.SafeBuild>
    <param.gpu.ComputeCapability />
    <param.gpu.CustomComputeCapability />
    <param.gpu.CompilerFlags />
    <var.checkIssuesGpu>false</var.checkIssuesGpu>
    <var.hasGpu>false</var.hasGpu>
    <unset>
      <param.objective />
      <param.DefaultImportExportVariable />
      <param.ExternalFcnMajority />
      <param.UseGlobals />
      <param.outputfile />
      <param.version />
      <param.HasECoderFeatures />
      <param.HasGpuCoder />
      <param.mex.mainhtml />
      <param.grt.mainhtml />
      <param.CallGeneratedCodeFromTest />
      <param.AutoInferDefaultFile />
      <param.AutoInferUseVariableSize />
      <param.AutoInferUseUnboundedSize />
      <param.AutoInferVariableSizeThreshold />
      <param.AutoInferUnboundedSizeThreshold />
      <param.EnableFixedPointStep />
      <param.EnableScreener />
      <var.LegacyTarget />
      <var.MirrorOnOpen />
      <param.FixedPointEnabled />
      <var.redirectedInputTypeData />
      <param.unifiedParamStorage />
      <var.outdatedOnRestore />
      <param.forceMexBuild />
      <param.configImportActive />
      <var.isGpuCoder />
      <var.notGpuCoder />
      <param.mex.outputfile />
      <param.grt.outputfile />
      <param.artifact />
      <param.EnableAutoExtrinsicCalls />
      <param.UsePreconditions />
      <param.FeatureFlags />
      <param.FixedPointMode />
      <param.AutoScaleLoopIndexVariables />
      <param.ComputedFixedPointData />
      <param.UserFixedPointData />
      <param.DefaultWordLength />
      <param.DefaultFractionLength />
      <param.FixedPointSafetyMargin />
      <param.FixedPointFimath />
      <param.FixedPointTypeSource />
      <param.StaticAnalysisTimeout />
      <param.StaticAnalysisGlobalRangesOnly />
      <param.LogAllIOValues />
      <param.DetectOverflows />
      <param.LogHistogram />
      <param.ShowCoverage />
      <param.ExcludedFixedPointVerificationFiles />
      <param.ExcludedFixedPointSimulationFiles />
      <param.InstrumentedBuildChecksum />
      <param.FixedPointStaticAnalysisChecksum />
      <param.InstrumentedMexFile />
      <param.FixedPointValidationChecksum />
      <param.FixedPointSourceCodeChecksum />
      <param.FixedPointFunctionReplacements />
      <param.OptimizeWholeNumbers />
      <param.ContainerTypes />
      <param.GeneratedFixedPointFileSuffix />
      <param.PlotFunction />
      <param.SDIPlot />
      <param.EnableCodeEfficiencyChecks />
      <param.DefaultFixedPointSignedness />
      <param.FixedPointTypeProposalMode />
      <var.lastFixedPointAction />
      <var.lastSimContext />
      <var.lastVerifyContext />
      <param.fpDataRoot />
      <param.fpUserFileChecksum />
      <var.snapshotChecksum />
      <param.fpLastConvertChecksum />
      <var.functionBlockSid />
      <param.fptSignedness />
      <var.FixedPointAnalysisMode />
      <param.FixedPointUseDesignRanges />
      <param.gpu.Enabled />
      <param.gpu.KernelNamePrefix />
      <param.gpu.MallocMode />
      <param.gpu.MallocThreshold />
      <param.gpu.StackLimitPerThread />
      <param.gpu.EnableCUBLAS />
      <param.gpu.EnableCUSOLVER />
      <param.gpu.EnableCUFFT />
      <param.gpu.Benchmarking />
      <param.gpu.SafeBuild />
      <param.gpu.ComputeCapability />
      <param.gpu.CustomComputeCapability />
      <param.gpu.CompilerFlags />
      <var.checkIssuesGpu />
      <var.hasGpu />
    </unset>
    <fileset.entrypoints>
      <file custom-data-expanded="false" value="${PROJECT_ROOT}\stochAN_single.m">
        <Marker>1527710373976</Marker>
      </file>
    </fileset.entrypoints>
    <fileset.testbench>
      <file>${PROJECT_ROOT}\Stoch4_Test.m</file>
      <file>${PROJECT_ROOT}\StochAN_Test.m</file>
    </fileset.testbench>
    <fileset.inputtypes>
      <file custom-data-expanded="false" value="${PROJECT_ROOT}\stochAN_single.m">
        <Inputs fileName="stochAN_single.m" functionName="stochAN_single" nargout="5">
          <Input Name="Istim" typeId="0" />
          <Input Name="fiber" typeId="1">
            <Field Name="Cm" typeId="2" />
            <Field Name="Rm" typeId="2" />
          </Input>
          <Input Name="options" typeId="1">
            <Field Name="dt" typeId="2" />
            <Field Name="E_Na" typeId="2" />
            <Field Name="E_K" typeId="2" />
            <Field Name="E_h" typeId="2" />
            <Field Name="Vrest" typeId="2" />
            <Field Name="Vrest2" typeId="2" />
            <Field Name="gNa" typeId="2" />
            <Field Name="gK" typeId="2" />
            <Field Name="gh" typeId="2" />
            <Field Name="glt" typeId="2" />
            <Field Name="N_Na_max" typeId="2" />
            <Field Name="N_K_max" typeId="2" />
            <Field Name="N_lt_max" typeId="2" />
            <Field Name="N_h_max" typeId="2" />
            <Field Name="seed" typeId="2" />
          </Input>
          <idpTable>
            <type typeId="0">
              <Class>double</Class>
              <Size>1 x :inf</Size>
              <Value />
              <InitialValue />
              <UserDefined>true</UserDefined>
              <Complex>false</Complex>
              <Sparse>false</Sparse>
            </type>
            <type typeId="1">
              <Class>struct</Class>
              <Size>1 x 1</Size>
              <Value />
              <InitialValue />
              <UserDefined>false</UserDefined>
              <TypeName />
              <Extern>false</Extern>
              <HeaderFile />
              <Alignment>-1</Alignment>
            </type>
            <type typeId="2">
              <Class>double</Class>
              <Size>1 x 1</Size>
              <Value />
              <InitialValue />
              <UserDefined>false</UserDefined>
              <Complex>false</Complex>
              <Sparse>false</Sparse>
            </type>
          </idpTable>
        </Inputs>
      </file>
    </fileset.inputtypes>
    <build-deliverables>
      <file location="C:\Users\jsere\Documents\StochAN\Single_Compartment" name="stochAN_single_mex.mexw64" optional="false">C:\Users\jsere\Documents\StochAN\Single_Compartment\stochAN_single_mex.mexw64</file>
    </build-deliverables>
    <workflow />
    <matlab>
      <root>C:\Program Files\MATLAB\R2018a</root>
      <toolboxes>
        <toolbox name="matlabcoder" />
      </toolboxes>
      <toolbox>
        <matlabcoder>
          <enabled>true</enabled>
        </matlabcoder>
      </toolbox>
    </matlab>
    <platform>
      <unix>false</unix>
      <mac>false</mac>
      <windows>true</windows>
      <win2k>false</win2k>
      <winxp>false</winxp>
      <vista>false</vista>
      <linux>false</linux>
      <solaris>false</solaris>
      <osver>10.0</osver>
      <os32>false</os32>
      <os64>true</os64>
      <arch>win64</arch>
      <matlab>true</matlab>
    </platform>
  </configuration>
</deployment-project>